<?xml version="1.0" encoding="UTF-8"?>
<DataFileEntity>
   <description></description>
   <name>LC-Bornes</name>
   <tag></tag>
   <containsHeaders>false</containsHeaders>
   <csvSeperator></csvSeperator>
   <dataFileGUID>2b8a8104-f735-462c-952c-96757d599827</dataFileGUID>
   <dataSourceUrl>C:\Users\uzerr99\Katalon-Repo\maximeau-tests\Data Files\Actifs\LC\AQUEDUC\FicheActif\ficheActif_BORNES_AQ.xls</dataSourceUrl>
   <driver>ExcelFile</driver>
   <isInternalPath>false</isInternalPath>
   <query></query>
   <secureUserAccount>false</secureUserAccount>
   <sheetName>Feuil1</sheetName>
   <usingGlobalDBSetting>false</usingGlobalDBSetting>
</DataFileEntity>
